Ecut value = 5.0
Gauss run option selected for RICH  =   GTB
RICH simulation for the data in year =  2018
RICH simulation now configured
ApplicationMgr    SUCCESS
====================================================================================================================================
====================================================================================================================================
ApplicationMgr       INFO Application Manager Configured successfully
ToolSvc.GitDDDB            INFO opening Git repository '/cvmfs/lhcb.cern.ch/lib/lhcb/git-conddb/DDDB.git'
ToolSvc.GitDDDB            INFO using commit 'dddb-20210215-8' corresponding to 055c450503b48b9e83f5e597da5376333dc2581c
ToolSvc.GitSIMCOND         INFO opening Git repository '/cvmfs/lhcb.cern.ch/lib/lhcb/git-conddb/SIMCOND.git'
ToolSvc.GitSIMCOND         INFO using commit 'sim-20201113-8-vc-md100-Sim10' corresponding to dcb4e5bf6bf032f40862985c470ddb4b92b8e76d
DetectorPersistencySvc     INFO Added successfully Conversion service:XmlCnvSvc
DetectorDataSvc         SUCCESS Detector description database: git:/lhcb.xml
 Geant4 version Name: geant4-10-06-patch-02    (29-May-2020)
                       Copyright : Geant4 Collaboration
                      References : NIM A 506 (2003), 250-303
                                 : IEEE-TNS 53 (2006), 270-278
                                 : NIM A 835 (2016), 186-225
                             WWW : http://geant4.org/
SimulationSvc              INFO Loading simulation attributes file ".../SimulationRICHesOff.xml" ...
GiGa.ModularPL             INFO GiGaPhysListModular initializing
GiGa.ModularPL             INFO Registered GiGa.ModularPL.EmOpt2Physics
GiGa.ModularPL             INFO Registered GiGa.ModularPL.DecayPhysics
GiGa.ModularPL             INFO Registered GiGa.ModularPL.EmExtraPhysics
GiGa.ModularPL             INFO Registered GiGa.ModularPL.IonPhysics
GiGa.ModularPL             INFO Registered GiGa.ModularPL.ElasticPhysics
GiGa.ModularPL             INFO Registered GiGa.ModularPL.FTFP_BERTPhysics
GiGa.ModularPL             INFO Registered GiGa.ModularPL.StoppingPhysics
GiGa.ModularPL             INFO Registered GiGa.ModularPL.NeutronTrkCut
GiGa.ModularPL             INFO Registered GiGa.ModularPL.GiGaPhysConstructorOp
GiGa.ModularPL.GiGaPh...WARNING duplicated property name 'RichHpdSiDetEfficiency', see https://its.cern.ch/jira/browse/GAUDI-1023
GiGa.ModularPL             INFO Registered GiGa.ModularPL.GiGaPhysConstructorHpd
GiGa.ModularPL             INFO Registered GiGa.ModularPL.GiGaPhysUnknownParticles
-------- WWWW ------- G4Exception-START -------- WWWW -------
*** G4Exception : PART102
      issued by : G4ParticleDefintion::G4ParticleDefintion
Strange PDGEncoding
-------- WWWW -------- G4Exception-END --------- WWWW -------
-------- WWWW ------- G4Exception-START -------- WWWW -------
*** G4Exception : PART102
      issued by : G4ParticleDefintion::G4ParticleDefintion
Strange PDGEncoding
-------- WWWW -------- G4Exception-END --------- WWWW -------
-------- WWWW ------- G4Exception-START -------- WWWW -------
*** G4Exception : PART102
      issued by : G4ParticleDefintion::G4ParticleDefintion
Strange PDGEncoding
-------- WWWW -------- G4Exception-END --------- WWWW -------
-------- WWWW ------- G4Exception-START -------- WWWW -------
*** G4Exception : PART102
      issued by : G4ParticleDefintion::G4ParticleDefintion
Strange PDGEncoding
-------- WWWW -------- G4Exception-END --------- WWWW -------
-------- WWWW ------- G4Exception-START -------- WWWW -------
*** G4Exception : PART102
      issued by : G4ParticleDefintion::G4ParticleDefintion
Strange PDGEncoding
-------- WWWW -------- G4Exception-END --------- WWWW -------
-------- WWWW ------- G4Exception-START -------- WWWW -------
*** G4Exception : PART102
      issued by : G4ParticleDefintion::G4ParticleDefintion
Strange PDGEncoding
-------- WWWW -------- G4Exception-END --------- WWWW -------
GiGa                       INFO Used Physics List Object is GiGaPhysListModular/GiGa.ModularPL
GiGa                       INFO Stacking Action Object is not required to be loaded
GiGa                       INFO Used Tracking Action Object is GiGaTrackActionSequence/GiGa.TrackSeq
GiGa                       INFO Used  Stepping Action Object is GiGaStepActionSequence/GiGa.StepSeq
GiGa                       INFO Used  Event Action Object is GiGaEventActionSequence/GiGa.EventSeq
GiGa                       INFO Used  Run Action Object is GiGaRunActionSequence/GiGa.RunSeq
EventClockSvc.FakeEve...   INFO Event times generated from 0 with steps of 0
EventClockSvc.FakeEve...   INFO Run numbers generated from 0 every 0 events
GaussGeo                   INFO ============================================
GaussGeo                   INFO =  useAlignment: 1
GaussGeo                   INFO =  alignAll: 1
GaussGeo                   INFO =  alignDetsNames:
GaussGeo                   INFO =    None
GaussGeo                   INFO ============================================
MagneticFieldSvc           INFO Opened magnetic field file : FieldMap/v5r7/cdf/field.v5r0.c1.down.cdf
MagneticFieldSvc           INFO Opened magnetic field file : FieldMap/v5r7/cdf/field.v5r0.c2.down.cdf
MagneticFieldSvc           INFO Opened magnetic field file : FieldMap/v5r7/cdf/field.v5r0.c3.down.cdf
MagneticFieldSvc           INFO Opened magnetic field file : FieldMap/v5r7/cdf/field.v5r0.c4.down.cdf
MagneticFieldSvc           INFO Map scaled by factor 1 with polarity internally used: -1 signed relative current: -1
GaussGeo.FieldMgr          INFO Minimum and Maximum Epsilon Step : 5e-05 0.001
GaussGeo                   INFO Global 'Field Manager' is set to 'GiGaFieldMgr/GaussGeo.FieldMgr'
GaussGeo                   INFO Global 'G4Field Manager' is set to 'G4FieldManager'
GaussGeo                   INFO Global 'G4MagneticField' is set to 'GiGaMagFieldGlobal'
GaussGeo                   INFO Global 'G4MagIntegratorStepper' is set to 'G4ClassicalRK4'
RootHistSvc                INFO Writing ROOT histograms to: UndefinedROOTOutputFileName
HistogramPersistencySvc    INFO Added successfully Conversion service:RootHistSvc
HistogramDataSvc           INFO Added stream file:data/gausscalo as GaussCalo
RFileCnv                   INFO opening Root file "data/gausscalo.root" for reading
GaussGeo.ZeroField         INFO createFieldMgr(): null magnetic field
GaussGeo                   INFO ================================
GaussGeo                   INFO =    Converted objects
GaussGeo                   INFO =
GaussGeo                   INFO =    DetElements : 	7
GaussGeo                   INFO =    Elements : 	101
GaussGeo                   INFO =    LAssemblies : 	3
GaussGeo                   INFO =    LVolumes : 	228
GaussGeo                   INFO =    Mixtures : 	34
GaussGeo                   INFO =
GaussGeo                   INFO =    Constructed figures
GaussGeo                   INFO =
GaussGeo                   INFO =    G4Box : 	353
GaussGeo                   INFO =    G4Polycone : 	10
GaussGeo                   INFO =    G4Trap : 	6
GaussGeo                   INFO =    G4Tubs : 	31
GaussGeo                   INFO ================================
GiGa                       INFO GiGa User Interface session is not required to be launched
GiGa                       INFO Visualisation Manager is not required to be created.
RndmGenSvc.Engine          INFO Generator engine type:CLHEP::RanluxEngine
RndmGenSvc.Engine          INFO Current Seed:1234567 Luxury:3
RndmGenSvc.Engine          INFO This is the GEANT4 engine!
RndmGenSvc                 INFO Using Random engine:HepRndm::Engine<CLHEP::RanluxEngine>
GaussSequencer             INFO Member list: GaudiSequencer/Generator, GaudiSequencer/Simulation
Generator                  INFO Member list: GaudiSequencer/GeneratorSlotMainSeq
GeneratorSlotMainSeq       INFO Member list: GenInit/GaussGen, ParticleGun, GaudiSequencer/GenMonitor
GaussGen                SUCCESS ==================================================================
GaussGen                SUCCESS Requested to process 10 events
GaussGen                SUCCESS ==================================================================
GaussGen                   INFO Create BeamForInitialization
GaussGen                   INFO Beam Parameters :
GaussGen                   INFO Energy = 3.5 TeV
GaussGen                   INFO Bunch length RMS = 82.03 mm
GaussGen                   INFO Normalized emittance = 0.0037 mm
GaussGen                   INFO Revolution frequency = 11.245 kHz
GaussGen                   INFO Total cross-section assumed = 91.1 mb
GaussGen                   INFO Horizontal crossing angle = -0.52 mrad
GaussGen                   INFO Vertical crossing angle = 0 mrad
GaussGen                   INFO Horizontal beam line angle = -0.075 mrad
GaussGen                   INFO Vertical beam line angle = 0.035 mrad
GaussGen                   INFO beta star = 3.1 m
GaussGen                   INFO Bunch spacing = 50 ns
GaussGen                   INFO Beam spot = (0.459,-0.015,0.5) mm
GaussGen                   INFO Luminosity = 2.47e+29 /cm2/s
GaussGen                   INFO Nu = 2.00104
GaussGen                   INFO emittance = 9.91888e-07
GaussGen                   INFO Luminous region = ( 0.03921, 0.03921, 58.004 ), mm
ParticleGun.FlatNPart...   INFO Number of particles per event chosen randomly between 1 and 1
ParticleGun.MomentumR...   INFO Particle type chosen randomly from : gamma
ParticleGun.MomentumR...   INFO Momentum range: 50 GeV <-> 50 GeV
ParticleGun.MomentumR...   INFO Theta range: 0.037 rad <-> 0.24 rad
ParticleGun.MomentumR...   INFO Phi range: 0 rad <-> 6.28319 rad
ParticleGun             SUCCESS ==================================================================
ParticleGun             SUCCESS Requested to generate EventType 56000050
ParticleGun             SUCCESS ==================================================================
GenMonitor                 INFO Member list: GenMonitorAlg
GenMonitorAlg              INFO Monitor will be applied to all events in container /Event/Gen/HepMCEvents
Simulation                 INFO Member list: GiGaDataStoreAlgorithm/GiGaStore, GaudiSequencer/MainEventSeq
MainEventSeq               INFO Member list: SimInit/MainEventGaussSim, GaudiSequencer/MainSimulation
MainEventGaussSim       SUCCESS ==================================================================
MainEventGaussSim       SUCCESS Requested to process 10 events
MainEventGaussSim       SUCCESS ==================================================================
MainSimulation             INFO Member list: GaudiSequencer/MakeMainSim, GaudiSequencer/SimMonitor
MakeMainSim                INFO Member list: GenerationToSimulation/GenToSim, GiGaFlushAlgorithm/GiGaFlush, GiGaCheckEventStatus/GiGaCheckEvent, SimulationToMCTruth/SimToMCTruth, GaudiSequencer/DetectorsHits, GaudiSequencer/MainEventDataPacking, PGPrimaryVertex
DetectorsHits              INFO Member list: GetCaloHitsAlg/GetSpdHits, GetCaloHitsAlg/GetPrsHits, GetCaloHitsAlg/GetEcalHits, GetCaloHitsAlg/GetHcalHits
MainEventDataPacking       INFO Member list: PackMCParticle, PackMCVertex, MCPrsHitPacker, MCSpdHitPacker, MCEcalHitPacker, MCHcalHitPacker
SimMonitor                 INFO Member list: GiGaGetEventAlg/GiGaGetMainEvent, MCTruthMonitor/MainMCTruthMonitor, GiGaGetHitsAlg, GaudiSequencer/DetectorsMonitor, GaudiSequencer/DataUnpackTest
DetectorsMonitor           INFO Member list: MCCaloMonitor/SpdMonitor, MCCaloMonitor/PrsMonitor, MCCaloMonitor/EcalMonitor, MCCaloMonitor/HcalMonitor
DataUnpackTest             INFO Member list: UnpackMCVertex, UnpackMCParticle, CompareMCVertex, CompareMCParticle, MCSpdHitUnpacker/UnpackSpdHits, MCSpdHitChecker/CheckSpdHits, MCPrsHitUnpacker/UnpackPrsHits, MCPrsHitChecker/CheckPrsHits, MCEcalHitUnpacker/UnpackEcalHits, MCEcalHitChecker/CheckEcalHits, MCHcalHitUnpacker/UnpackHcalHits, MCHcalHitChecker/CheckHcalHits
EventLoopMgr            WARNING Unable to locate service "EventSelector"
EventLoopMgr            WARNING No events will be processed from external input.
ApplicationMgr             INFO Application Manager Initialized successfully
ApplicationMgr             INFO Application Manager Started successfully
GaussGen                   INFO Evt 1,  Run 1082,  Nr. in job = 1 with seeds [1082, 1, 2119103972, 0]
MainEventGaussSim          INFO Evt 1,  Run 1082,  Nr. in job = 1 with seeds [1082, 1, 1677927199, 0]
GiGa.GiGaMgr               INFO GiGaRunManager::  Geometry will be extracted from GaussGeo
 FTFP_BERT : new threshold between BERT and FTFP is over the interval
 for pions :   3 to 6 GeV
 for kaons :   3 to 6 GeV
 for proton :  3 to 6 GeV
 for neutron : 3 to 6 GeV
G4Transportation:  Current values for thresholds related to  the killing of looping tracks:
    Warning Energy   = 100 MeV   ( below this tracks are killed without warning )
    Important Energy = 250  ( above this tracks are given multiple chances )
    Extra Trials     = 10 'important' tracks, i.e. those above 'important' energy
GiGa.ModularPL             INFO  The production cut for gamma is set to 	5 mm
GiGa.ModularPL             INFO  The production cut for electron is set to 	5 mm
GiGa.ModularPL             INFO  The production cut for positron is set to 	5 mm
====================================================================
                  HADRONIC PROCESSES SUMMARY (verbose level 1)
                           Hadronic Processes for neutron
  Process: hadElastic
        Model:             hElasticCHIPS: 0 eV  ---> 100 TeV
     Cr_sctns:        G4NeutronElasticXS: 0 eV  ---> 100 TeV
  Process: neutronInelastic
        Model:                      FTFP: 3 GeV ---> 100 TeV
        Model:            BertiniCascade: 0 eV  ---> 6 GeV
     Cr_sctns:      G4NeutronInelasticXS: 0 eV  ---> 100 TeV
  Process: nCapture
        Model:               nRadCapture: 0 eV  ---> 100 TeV
     Cr_sctns:        G4NeutronCaptureXS: 0 eV  ---> 100 TeV
  Process: nKiller
                           Hadronic Processes for GenericIon
  Process: ionInelastic
        Model:  Binary Light Ion Cascade: 0 eV /n ---> 6 GeV/n
        Model:                      FTFP: 3 GeV/n ---> 100 TeV/n
     Cr_sctns:  Glauber-Gribov Nucl-nucl: 0 eV  ---> 25.6 PeV
                           Hadronic Processes for He3
  Process: He3Inelastic
        Model:  Binary Light Ion Cascade: 0 eV /n ---> 6 GeV/n
        Model:                      FTFP: 3 GeV/n ---> 100 TeV/n
     Cr_sctns:  Glauber-Gribov Nucl-nucl: 0 eV  ---> 25.6 PeV
  Process: hadElastic
        Model:              hElasticLHEP: 0 eV /n ---> 100 TeV/n
     Cr_sctns:  Glauber-Gribov Nucl-nucl: 0 eV  ---> 25.6 PeV
                           Hadronic Processes for alpha
  Process: alphaInelastic
        Model:  Binary Light Ion Cascade: 0 eV /n ---> 6 GeV/n
        Model:                      FTFP: 3 GeV/n ---> 100 TeV/n
     Cr_sctns:  Glauber-Gribov Nucl-nucl: 0 eV  ---> 25.6 PeV
  Process: hadElastic
        Model:              hElasticLHEP: 0 eV /n ---> 100 TeV/n
     Cr_sctns:  Glauber-Gribov Nucl-nucl: 0 eV  ---> 25.6 PeV
                           Hadronic Processes for anti_He3
  Process: hadElastic
        Model:              hElasticLHEP: 0 eV /n ---> 100.1 MeV/n
        Model:              AntiAElastic: 100 MeV/n ---> 100 TeV/n
     Cr_sctns:              AntiAGlauber: 0 eV  ---> 25.6 PeV
  Process: anti_He3Inelastic
        Model:                      FTFP: 0 eV /n ---> 100 TeV/n
     Cr_sctns:              AntiAGlauber: 0 eV  ---> 25.6 PeV
  Process: hFritiofCaptureAtRest
                           Hadronic Processes for anti_alpha
  Process: hadElastic
        Model:              hElasticLHEP: 0 eV /n ---> 100.1 MeV/n
        Model:              AntiAElastic: 100 MeV/n ---> 100 TeV/n
     Cr_sctns:              AntiAGlauber: 0 eV  ---> 25.6 PeV
  Process: anti_alphaInelastic
        Model:                      FTFP: 0 eV /n ---> 100 TeV/n
     Cr_sctns:              AntiAGlauber: 0 eV  ---> 25.6 PeV
  Process: hFritiofCaptureAtRest
                           Hadronic Processes for anti_deuteron
  Process: hadElastic
        Model:              hElasticLHEP: 0 eV /n ---> 100.1 MeV/n
        Model:              AntiAElastic: 100 MeV/n ---> 100 TeV/n
     Cr_sctns:              AntiAGlauber: 0 eV  ---> 25.6 PeV
  Process: anti_deuteronInelastic
        Model:                      FTFP: 0 eV /n ---> 100 TeV/n
     Cr_sctns:              AntiAGlauber: 0 eV  ---> 25.6 PeV
  Process: hFritiofCaptureAtRest
                           Hadronic Processes for anti_neutron
  Process: hadElastic
        Model:              hElasticLHEP: 0 eV  ---> 100.1 MeV
        Model:              AntiAElastic: 100 MeV ---> 100 TeV
     Cr_sctns:              AntiAGlauber: 0 eV  ---> 25.6 PeV
  Process: anti_neutronInelastic
        Model:                      FTFP: 0 eV  ---> 100 TeV
     Cr_sctns:              AntiAGlauber: 0 eV  ---> 25.6 PeV
  Process: hFritiofCaptureAtRest
                           Hadronic Processes for anti_proton
  Process: hadElastic
        Model:              hElasticLHEP: 0 eV  ---> 100.1 MeV
        Model:              AntiAElastic: 100 MeV ---> 100 TeV
     Cr_sctns:              AntiAGlauber: 0 eV  ---> 25.6 PeV
  Process: anti_protonInelastic
        Model:                      FTFP: 0 eV  ---> 100 TeV
     Cr_sctns:              AntiAGlauber: 0 eV  ---> 25.6 PeV
  Process: hFritiofCaptureAtRest
                           Hadronic Processes for anti_triton
  Process: hadElastic
        Model:              hElasticLHEP: 0 eV /n ---> 100.1 MeV/n
        Model:              AntiAElastic: 100 MeV/n ---> 100 TeV/n
     Cr_sctns:              AntiAGlauber: 0 eV  ---> 25.6 PeV
  Process: anti_tritonInelastic
        Model:                      FTFP: 0 eV /n ---> 100 TeV/n
     Cr_sctns:              AntiAGlauber: 0 eV  ---> 25.6 PeV
  Process: hFritiofCaptureAtRest
                           Hadronic Processes for deuteron
  Process: dInelastic
        Model:  Binary Light Ion Cascade: 0 eV /n ---> 6 GeV/n
        Model:                      FTFP: 3 GeV/n ---> 100 TeV/n
     Cr_sctns:  Glauber-Gribov Nucl-nucl: 0 eV  ---> 25.6 PeV
  Process: hadElastic
        Model:              hElasticLHEP: 0 eV /n ---> 100 TeV/n
     Cr_sctns:  Glauber-Gribov Nucl-nucl: 0 eV  ---> 25.6 PeV
                           Hadronic Processes for e+
  Process: electronNuclear
        Model:   G4ElectroVDNuclearModel: 0 eV  ---> 1 PeV
     Cr_sctns:          ElectroNuclearXS: 0 eV  ---> 100 TeV
                           Hadronic Processes for e-
  Process: electronNuclear
        Model:   G4ElectroVDNuclearModel: 0 eV  ---> 1 PeV
     Cr_sctns:          ElectroNuclearXS: 0 eV  ---> 100 TeV
                           Hadronic Processes for gamma
  Process: photonNuclear
        Model:            BertiniCascade: 0 eV  ---> 6 GeV
        Model:           TheoFSGenerator: 3 GeV ---> 100 TeV
     Cr_sctns:            PhotoNuclearXS: 0 eV  ---> 100 TeV
                           Hadronic Processes for kaon+
  Process: hadElastic
        Model:              hElasticLHEP: 0 eV  ---> 100 TeV
     Cr_sctns:            Glauber-Gribov: 0 eV  ---> 100 TeV
  Process: kaon+Inelastic
        Model:                      FTFP: 3 GeV ---> 100 TeV
        Model:            BertiniCascade: 0 eV  ---> 6 GeV
     Cr_sctns:            Glauber-Gribov: 0 eV  ---> 100 TeV
                           Hadronic Processes for kaon-
  Process: hadElastic
        Model:              hElasticLHEP: 0 eV  ---> 100 TeV
     Cr_sctns:            Glauber-Gribov: 0 eV  ---> 100 TeV
  Process: kaon-Inelastic
        Model:                      FTFP: 3 GeV ---> 100 TeV
        Model:            BertiniCascade: 0 eV  ---> 6 GeV
     Cr_sctns:            Glauber-Gribov: 0 eV  ---> 100 TeV
  Process: hBertiniCaptureAtRest
                           Hadronic Processes for lambda
  Process: hadElastic
        Model:              hElasticLHEP: 0 eV  ---> 100 TeV
     Cr_sctns:            Glauber-Gribov: 0 eV  ---> 100 TeV
  Process: lambdaInelastic
        Model:            BertiniCascade: 0 eV  ---> 6 GeV
        Model:                      FTFP: 3 GeV ---> 100 TeV
     Cr_sctns:            Glauber-Gribov: 0 eV  ---> 100 TeV
                           Hadronic Processes for mu+
  Process: muonNuclear
        Model:      G4MuonVDNuclearModel: 0 eV  ---> 1 PeV
     Cr_sctns:     KokoulinMuonNuclearXS: 0 eV  ---> 100 TeV
                           Hadronic Processes for mu-
  Process: muonNuclear
        Model:      G4MuonVDNuclearModel: 0 eV  ---> 1 PeV
     Cr_sctns:     KokoulinMuonNuclearXS: 0 eV  ---> 100 TeV
  Process: muMinusCaptureAtRest
                           Hadronic Processes for pi+
  Process: hadElastic
        Model:           hElasticGlauber: 0 eV  ---> 100 TeV
     Cr_sctns:  BarashenkovGlauberGribov: 0 eV  ---> 100 TeV
  Process: pi+Inelastic
        Model:                      FTFP: 3 GeV ---> 100 TeV
        Model:            BertiniCascade: 0 eV  ---> 6 GeV
     Cr_sctns:  BarashenkovGlauberGribov: 0 eV  ---> 100 TeV
                           Hadronic Processes for pi-
  Process: hadElastic
        Model:           hElasticGlauber: 0 eV  ---> 100 TeV
     Cr_sctns:  BarashenkovGlauberGribov: 0 eV  ---> 100 TeV
  Process: pi-Inelastic
        Model:                      FTFP: 3 GeV ---> 100 TeV
        Model:            BertiniCascade: 0 eV  ---> 6 GeV
     Cr_sctns:  BarashenkovGlauberGribov: 0 eV  ---> 100 TeV
  Process: hBertiniCaptureAtRest
                           Hadronic Processes for proton
  Process: hadElastic
        Model:             hElasticCHIPS: 0 eV  ---> 100 TeV
     Cr_sctns:  BarashenkovGlauberGribov: 0 eV  ---> 100 TeV
  Process: protonInelastic
        Model:                      FTFP: 3 GeV ---> 100 TeV
        Model:            BertiniCascade: 0 eV  ---> 6 GeV
     Cr_sctns:  BarashenkovGlauberGribov: 0 eV  ---> 100 TeV
                           Hadronic Processes for triton
  Process: tInelastic
        Model:  Binary Light Ion Cascade: 0 eV /n ---> 6 GeV/n
        Model:                      FTFP: 3 GeV/n ---> 100 TeV/n
     Cr_sctns:  Glauber-Gribov Nucl-nucl: 0 eV  ---> 25.6 PeV
  Process: hadElastic
        Model:              hElasticLHEP: 0 eV /n ---> 100 TeV/n
     Cr_sctns:  Glauber-Gribov Nucl-nucl: 0 eV  ---> 25.6 PeV
================================================================
=======================================================================
======       Pre-compound/De-excitation Physics Parameters     ========
=======================================================================
Type of pre-compound inverse x-section              3
Pre-compound model active                           1
Pre-compound excitation low energy (MeV)            0.1
Pre-compound excitation high energy (MeV)           30
Type of de-excitation inverse x-section             3
Type of de-excitation factory                       Evaporation+GEM
Number of de-excitation channels                    68
Min excitation energy (keV)                         0.01
Min energy per nucleon for multifragmentation (MeV) 2e+05
Limit excitation energy for Fermi BreakUp (MeV)     20
Level density (1/MeV)                               0.075
Use simple level density model                      1
Use discrete excitation energy of the residual      0
Time limit for long lived isomeres (ns)             1000
Internal e- conversion flag                         1
Store e- internal conversion data                   0
Electron internal conversion ID                     2
Correlated gamma emission flag                      0
Max 2J for sampling of angular correlations         10
Upload data before 1st event for                Z < 9
=======================================================================
GiGaGetMainEvent           INFO Number of extracted MCParticles 'MC/Particles' 	1
GiGaGetMainEvent           INFO Number of extracted MCVertices  'MC/Vertices'  	2
MainEventGaussSim          INFO Evt 2,  Run 1082,  Nr. in job = 2 with seeds [1082, 2, 1044128089, 0]
GiGaGetMainEvent           INFO Number of extracted MCParticles 'MC/Particles' 	1
GiGaGetMainEvent           INFO Number of extracted MCVertices  'MC/Vertices'  	2
MainEventGaussSim          INFO Evt 3,  Run 1082,  Nr. in job = 3 with seeds [1082, 3, 790725412, 0]
GiGaGetMainEvent           INFO Number of extracted MCParticles 'MC/Particles' 	1
GiGaGetMainEvent           INFO Number of extracted MCVertices  'MC/Vertices'  	2
MainEventGaussSim          INFO Evt 4,  Run 1082,  Nr. in job = 4 with seeds [1082, 4, 1633773475, 0]
GiGaGetMainEvent           INFO Number of extracted MCParticles 'MC/Particles' 	1
GiGaGetMainEvent           INFO Number of extracted MCVertices  'MC/Vertices'  	2
MainEventGaussSim          INFO Evt 5,  Run 1082,  Nr. in job = 5 with seeds [1082, 5, 103049051, 0]
GiGaGetMainEvent           INFO Number of extracted MCParticles 'MC/Particles' 	1
GiGaGetMainEvent           INFO Number of extracted MCVertices  'MC/Vertices'  	2
MainEventGaussSim          INFO Evt 6,  Run 1082,  Nr. in job = 6 with seeds [1082, 6, 733772902, 0]
GiGaGetMainEvent           INFO Number of extracted MCParticles 'MC/Particles' 	1
GiGaGetMainEvent           INFO Number of extracted MCVertices  'MC/Vertices'  	2
MainEventGaussSim          INFO Evt 7,  Run 1082,  Nr. in job = 7 with seeds [1082, 7, 494329819, 0]
GiGaGetMainEvent           INFO Number of extracted MCParticles 'MC/Particles' 	1
GiGaGetMainEvent           INFO Number of extracted MCVertices  'MC/Vertices'  	2
MainEventGaussSim          INFO Evt 8,  Run 1082,  Nr. in job = 8 with seeds [1082, 8, 1086315665, 0]
GiGaGetMainEvent           INFO Number of extracted MCParticles 'MC/Particles' 	1
GiGaGetMainEvent           INFO Number of extracted MCVertices  'MC/Vertices'  	2
MainEventGaussSim          INFO Evt 9,  Run 1082,  Nr. in job = 9 with seeds [1082, 9, 1327397198, 0]
GiGaGetMainEvent           INFO Number of extracted MCParticles 'MC/Particles' 	3
GiGaGetMainEvent           INFO Number of extracted MCVertices  'MC/Vertices'  	4
MainEventGaussSim          INFO Evt 10,  Run 1082,  Nr. in job = 10 with seeds [1082, 10, 2062307553, 0]
GiGaGetMainEvent           INFO Number of extracted MCParticles 'MC/Particles' 	1
GiGaGetMainEvent           INFO Number of extracted MCVertices  'MC/Vertices'  	2
ApplicationMgr             INFO Application Manager Stopped successfully
GaussGen                SUCCESS ==================================================================
GaussGen                SUCCESS 10 events processed
GaussGen                SUCCESS ==================================================================
ParticleGun                INFO **************************************************
ParticleGun                INFO ***********   Generation counters   **************
Number of generated events : 10
Number of generated particles : 10
Number of accepted events : 10
Number of particles in accepted events : 10
GenMonitorAlg              INFO
======================== Generators Statistics ====================
=                                                                 =
= Number of particles generated: 10
= Number of events: 10
= Mean multiplicity: 1
=                                                                 =
= Number of pseudo stable particles generated: 10
= Number of events: 10
= Mean pseudo stable multiplicity: 1
=                                                                 =
= Number of charged stable particles generated: 0
= Number of events: 10
= Mean charged stable multiplicity: 0
=                                                                 =
= Number of charged stable particles in LHCb eta 0
= Number of events: 10
= Mean charged stable multiplicity in LHCb eta: 0
=                                                                 =
===================================================================
MainEventGaussSim       SUCCESS ==================================================================
MainEventGaussSim       SUCCESS 10 events processed
MainEventGaussSim       SUCCESS ==================================================================
RootHistSvc             WARNING no ROOT output file name, Histograms cannot be persistified
EventLoopMgr               INFO Histograms converted successfully according to request.
ToolSvc                    INFO Removing all tools created by ToolSvc
GiGa.GiGaMgr               INFO GiGaRunManager:: GiGaRunManager Finalization
*****Chrono*****           INFO  The Final CPU consumption ( Chrono ) Table (ordered)
******Stat******           INFO  The Final stat Table (not ordered)
******Stat******           INFO  |    Counter     |     #     |    sum     | mean/eff^* | rms/err^*  |     min     |     max     |
******Stat******           INFO  | "#Ecal MCHits" |        10 |        389 |     38.900 |     20.926 |      20.000 |      82.000 |
******Stat******           INFO  | "#Hcal MCHits" |        10 |         32 |     3.2000 |     1.9900 |      0.0000 |      8.0000 |
******Stat******           INFO  | "#MCParticles" |        10 |         12 |     1.2000 |    0.60000 |      1.0000 |      3.0000 |
******Stat******           INFO  | "#MCVertices"  |        10 |         22 |     2.2000 |    0.60000 |      2.0000 |      4.0000 |
******Stat******           INFO  | "#Prs MCHits"  |        10 |        438 |     43.800 |     30.951 |      0.0000 |      78.000 |
******Stat******           INFO  | "#Spd MCHits"  |        10 |         90 |     9.0000 |     7.7071 |      0.0000 |      24.000 |
ChronoStatSvc.finalize()   INFO  Service finalized successfully
ApplicationMgr             INFO Application Manager Finalized successfully
ApplicationMgr             INFO Application Manager Terminated successfully
CheckEcalHits              INFO Number of counters : 6
 |    Counter                                      |     #     |    sum     | mean/eff^* | rms/err^*  |     min     |     max     |
 | "Diff.    - Energy"                             |       389 |0.000412056 | 1.0593e-06 | 2.8175e-05 | -4.9954e-05 |  4.9905e-05 |
 | "Diff.    - TOF"                                |       389 |          0 |      0.0000 |      0.0000 |       0.0000 |       0.0000 |
 | "Original - Energy"                             |       389 |      62757 |     161.33 |     768.48 |   0.0022849 |      6000.6 |
 | "Original - TOF"                                |       389 |          3 |  0.0077121 |   0.087479 |       0.0000 |      1.0000 |
 | "Unpacked - Energy"                             |       389 |      62757 |     161.33 |     768.48 |   0.0023000 |      6000.6 |
 | "Unpacked - TOF"                                |       389 |          3 |  0.0077121 |   0.087479 |       0.0000 |      1.0000 |
CheckHcalHits              INFO Number of counters : 6
 |    Counter                                      |     #     |    sum     | mean/eff^* | rms/err^*  |     min     |     max     |
 | "Diff.    - Energy"                             |        32 |-0.0001077017 |-3.3657e-06 | 2.4771e-05 | -4.5805e-05 |  4.6481e-05 |
 | "Diff.    - TOF"                                |        32 |          0 |      0.0000 |      0.0000 |       0.0000 |       0.0000 |
 | "Original - Energy"                             |        32 |   34.77989 |     1.0869 |     1.5424 |   0.0036126 |      8.5603 |
 | "Original - TOF"                                |        32 |         -5 |   -0.15625 |    0.44084 |     -1.0000 |      1.0000 |
 | "Unpacked - Energy"                             |        32 |      34.78 |     1.0869 |     1.5424 |   0.0036000 |      8.5603 |
 | "Unpacked - TOF"                                |        32 |         -5 |   -0.15625 |    0.44084 |     -1.0000 |      1.0000 |
CheckPrsHits               INFO Number of counters : 6
 |    Counter                                      |     #     |    sum     | mean/eff^* | rms/err^*  |     min     |     max     |
 | "Diff.    - Energy"                             |       438 |0.0005999738 | 1.3698e-06 | 2.8499e-05 | -4.9512e-05 |  4.9952e-05 |
 | "Diff.    - TOF"                                |       438 |          0 |      0.0000 |      0.0000 |       0.0000 |       0.0000 |
 | "Original - Energy"                             |       438 |   1214.994 |     2.7740 |     14.795 |  2.1445e-05 |      166.09 |
 | "Original - TOF"                                |       438 |        657 |     1.5000 |     1.7078 |     -1.0000 |      4.0000 |
 | "Unpacked - Energy"                             |       438 |   1214.993 |     2.7740 |     14.795 |       0.0000 |      166.09 |
 | "Unpacked - TOF"                                |       438 |        657 |     1.5000 |     1.7078 |     -1.0000 |      4.0000 |
CheckSpdHits               INFO Number of counters : 6
 |    Counter                                      |     #     |    sum     | mean/eff^* | rms/err^*  |     min     |     max     |
 | "Diff.    - Energy"                             |        90 |-9.391609e-05 |-1.0435e-06 | 2.9669e-05 | -4.9696e-05 |  4.9005e-05 |
 | "Diff.    - TOF"                                |        90 |          0 |      0.0000 |      0.0000 |       0.0000 |       0.0000 |
 | "Original - Energy"                             |        90 |   27.06931 |    0.30077 |    0.79451 |  1.2405e-05 |      4.1632 |
 | "Original - TOF"                                |        90 |        135 |     1.5000 |     1.7078 |     -1.0000 |      4.0000 |
 | "Unpacked - Energy"                             |        90 |    27.0694 |    0.30077 |    0.79451 |       0.0000 |      4.1632 |
 | "Unpacked - TOF"                                |        90 |        135 |     1.5000 |     1.7078 |     -1.0000 |      4.0000 |
GaussGen.GaussGenMemory    INFO Number of counters : 2
 |    Counter                                      |     #     |    sum     | mean/eff^* | rms/err^*  |     min     |     max     |
GaussGeo.Ecal              INFO Number of counters : 4
 |    Counter                                      |     #     |    sum     | mean/eff^* | rms/err^*  |     min     |     max     |
 | "#energy"                                       |        10 |     62.757 |     6.2757 |    0.18471 |      6.0587 |      6.6004 |
 | "#hits"                                         |        10 |        379 |     37.900 |     21.111 |      20.000 |      82.000 |
 | "#subhits"                                      |        10 |        386 |     38.600 |     20.786 |      20.000 |      82.000 |
 | "#tslots"                                       |        10 |        389 |     38.900 |     20.926 |      20.000 |      82.000 |
GaussGeo.Hcal              INFO Number of counters : 4
 |    Counter                                      |     #     |    sum     | mean/eff^* | rms/err^*  |     min     |     max     |
 | "#energy"                                       |        10 | 0.03477989 |  0.0034780 |  0.0035888 |       0.0000 |    0.012738 |
 | "#hits"                                         |        10 |         25 |     2.5000 |     1.4318 |       0.0000 |      5.0000 |
 | "#subhits"                                      |        10 |         25 |     2.5000 |     1.4318 |       0.0000 |      5.0000 |
 | "#tslots"                                       |        10 |         32 |     3.2000 |     1.9900 |       0.0000 |      8.0000 |
GaussGeo.Prs               INFO Number of counters : 4
 |    Counter                                      |     #     |    sum     | mean/eff^* | rms/err^*  |     min     |     max     |
 | "#energy"                                       |        10 |   1.214994 |    0.12150 |   0.095499 |       0.0000 |     0.26068 |
 | "#hits"                                         |        10 |         72 |     7.2000 |     5.0951 |       0.0000 |      13.000 |
 | "#subhits"                                      |        10 |         73 |     7.3000 |     5.1585 |       0.0000 |      13.000 |
 | "#tslots"                                       |        10 |        438 |     43.800 |     30.951 |       0.0000 |      78.000 |
GaussGeo.Spd               INFO Number of counters : 4
 |    Counter                                      |     #     |    sum     | mean/eff^* | rms/err^*  |     min     |     max     |
 | "#energy"                                       |        10 | 0.02706931 |  0.0027069 |  0.0047575 |       0.0000 |    0.016121 |
 | "#hits"                                         |        10 |         14 |     1.4000 |     1.1136 |       0.0000 |      3.0000 |
 | "#subhits"                                      |        10 |         15 |     1.5000 |     1.2845 |       0.0000 |      4.0000 |
 | "#tslots"                                       |        10 |         90 |     9.0000 |     7.7071 |       0.0000 |      24.000 |
MCEcalHitPacker            INFO Number of counters : 1
 |    Counter                                      |     #     |    sum     | mean/eff^* | rms/err^*  |     min     |     max     |
 | "# PackedData"                                  |        10 |        389 |     38.900 |     20.926 |      20.000 |      82.000 |
MCHcalHitPacker            INFO Number of counters : 1
 |    Counter                                      |     #     |    sum     | mean/eff^* | rms/err^*  |     min     |     max     |
 | "# PackedData"                                  |        10 |         32 |     3.2000 |     1.9900 |       0.0000 |      8.0000 |
MCPrsHitPacker             INFO Number of counters : 1
 |    Counter                                      |     #     |    sum     | mean/eff^* | rms/err^*  |     min     |     max     |
 | "# PackedData"                                  |        10 |        438 |     43.800 |     30.951 |       0.0000 |      78.000 |
MCSpdHitPacker             INFO Number of counters : 1
 |    Counter                                      |     #     |    sum     | mean/eff^* | rms/err^*  |     min     |     max     |
 | "# PackedData"                                  |        10 |         90 |     9.0000 |     7.7071 |       0.0000 |      24.000 |
MainEventGaussSim.Mai...   INFO Number of counters : 2
 |    Counter                                      |     #     |    sum     | mean/eff^* | rms/err^*  |     min     |     max     |
UnpackEcalHits             INFO Number of counters : 1
 |    Counter                                      |     #     |    sum     | mean/eff^* | rms/err^*  |     min     |     max     |
 | "# UnPackedData"                                |        10 |        389 |     38.900 |     20.926 |      20.000 |      82.000 |
UnpackHcalHits             INFO Number of counters : 1
 |    Counter                                      |     #     |    sum     | mean/eff^* | rms/err^*  |     min     |     max     |
 | "# UnPackedData"                                |        10 |         32 |     3.2000 |     1.9900 |       0.0000 |      8.0000 |
UnpackPrsHits              INFO Number of counters : 1
 |    Counter                                      |     #     |    sum     | mean/eff^* | rms/err^*  |     min     |     max     |
 | "# UnPackedData"                                |        10 |        438 |     43.800 |     30.951 |       0.0000 |      78.000 |
UnpackSpdHits              INFO Number of counters : 1
 |    Counter                                      |     #     |    sum     | mean/eff^* | rms/err^*  |     min     |     max     |
 | "# UnPackedData"                                |        10 |         90 |     9.0000 |     7.7071 |       0.0000 |      24.000 |
